Get Top Terms for a Topic — get_topN_terms • topicl
…
get_topN_terms(mod, 1, 100)
#> # A tibble: 100 × 3
#>    topic term       beta
#>    <int> <chr>     <dbl>
#>  1     1 legisl  0.0483 
#>  2     1 bill    0.0303 
#>  3     1 vote    0.0252 
#>  4     1 senat   0.0212 
#>  5     1 hous    0.0125 
#>  6     1 will    0.0115 
#>  7     1 pass    0.00950
#>  8     1 fisa    0.00703
#>  9     1 support 0.00659
#> 10     1 protect 0.00658
#> # ℹ 90 more rows
…
